{
  "extName": {
    "message": "Just vpn",
    "description": ""
  },
  "extDescription": {
    "message": "Extensión vpn simple y conveniente. No es necesario iniciar sesión. 100% gratis para siempre",
    "description": ""
  },
  "noServer": {
    "message": "Todo el servidor no está disponible",
    "description": ""
  },
  "serverConnect": {
    "message": "Conectar",
    "description": ""
  },
  "serverConnected": {
    "message": "Conectada",
    "description": ""
  },
  "notConnected": {
    "message": "No conectada",
    "description": ""
  }
}
