{
  "extName": {
    "message": "Just vpn",
    "description": ""
  },
  "extDescription": {
    "message": "Extensão vpn simples e conveniente. Não é necessário fazer login. 100% grátis para sempre",
    "description": ""
  },
  "noServer": {
    "message": "Todos os servidores indisponíveis",
    "description": ""
  },
  "serverConnect": {
    "message": "Conectar",
    "description": ""
  },
  "serverConnected": {
    "message": "Conectado",
    "description": ""
  },
  "notConnected": {
    "message": "Não conectado",
    "description": ""
  }
}
